EESchema Schematic File Version 2
LIBS:power
LIBS:device
LIBS:transistors
LIBS:conn
LIBS:linear
LIBS:regul
LIBS:74xx
LIBS:cmos4000
LIBS:adc-dac
LIBS:memory
LIBS:xilinx
LIBS:microcontrollers
LIBS:dsp
LIBS:microchip
LIBS:analog_switches
LIBS:motorola
LIBS:texas
LIBS:intel
LIBS:audio
LIBS:interface
LIBS:digital-audio
LIBS:philips
LIBS:display
LIBS:cypress
LIBS:siliconi
LIBS:opto
LIBS:atmel
LIBS:contrib
LIBS:valves
LIBS:IC_raspberry
LIBS:PL_connectors
LIBS:mcp25xx
LIBS:rpi_can-cache
EELAYER 25 0
EELAYER END
$Descr A4 11693 8268
encoding utf-8
Sheet 1 1
Title ""
Date ""
Rev ""
Comp ""
Comment1 ""
Comment2 ""
Comment3 ""
Comment4 ""
$EndDescr
$Comp
L RASPBERRY_IO RPi1
U 1 1 56865114
P 2200 1800
F 0 "RPi1" H 2200 2500 60  0000 C CNN
F 1 "RASPBERRY_IO" V 2200 1800 50  0000 C CNN
F 2 "Socket_Strips:Socket_Strip_Straight_2x13" H 2200 1800 60  0001 C CNN
F 3 "" H 2200 1800 60  0000 C CNN
	1    2200 1800
	1    0    0    -1  
$EndComp
$Comp
L GND #PWR3
U 1 1 5686562D
P 2700 1400
F 0 "#PWR3" H 2700 1150 50  0001 C CNN
F 1 "GND" H 2700 1250 50  0000 C CNN
F 2 "" H 2700 1400 50  0000 C CNN
F 3 "" H 2700 1400 50  0000 C CNN
	1    2700 1400
	0    -1   -1   0   
$EndComp
$Comp
L +5V #PWR2
U 1 1 5686564A
P 2700 1100
F 0 "#PWR2" H 2700 950 50  0001 C CNN
F 1 "+5V" H 2700 1240 50  0000 C CNN
F 2 "" H 2700 1100 50  0000 C CNN
F 3 "" H 2700 1100 50  0000 C CNN
	1    2700 1100
	1    0    0    -1  
$EndComp
$Comp
L +3.3V #PWR1
U 1 1 5686566C
P 1700 1100
F 0 "#PWR1" H 1700 950 50  0001 C CNN
F 1 "+3.3V" H 1700 1240 50  0000 C CNN
F 2 "" H 1700 1100 50  0000 C CNN
F 3 "" H 1700 1100 50  0000 C CNN
	1    1700 1100
	1    0    0    -1  
$EndComp
Text Label 2700 2200 0    60   ~ 0
CAN_~INT~
Text Label 1700 2100 2    60   ~ 0
CAN_MOSI
Text Label 1700 2200 2    60   ~ 0
CAN_MISO
Text Label 1700 2300 2    60   ~ 0
CAN_SCK
Text Label 2700 2300 0    60   ~ 0
CAN_~CS~
$Comp
L MCP2551 U1
U 1 1 568659A0
P 9150 1500
F 0 "U1" H 8900 1900 60  0000 C CNN
F 1 "MCP2551" H 9050 1100 60  0000 C CNN
F 2 "Housings_SOIC:SOIC-8_3.9x4.9mm_Pitch1.27mm" H 9150 1500 60  0001 C CNN
F 3 "" H 9150 1500 60  0000 C CNN
	1    9150 1500
	1    0    0    -1  
$EndComp
$Comp
L R R1
U 1 1 56865A35
P 7750 1300
F 0 "R1" V 7830 1300 50  0000 C CNN
F 1 "10k" V 7750 1300 50  0000 C CNN
F 2 "Resistors_SMD:R_0603" V 7680 1300 50  0001 C CNN
F 3 "" H 7750 1300 50  0000 C CNN
	1    7750 1300
	0    1    1    0   
$EndComp
$Comp
L R R2
U 1 1 56865A7E
P 7500 1550
F 0 "R2" V 7580 1550 50  0000 C CNN
F 1 "18k" V 7500 1550 50  0000 C CNN
F 2 "Resistors_SMD:R_0603" V 7430 1550 50  0001 C CNN
F 3 "" H 7500 1550 50  0000 C CNN
	1    7500 1550
	1    0    0    -1  
$EndComp
$Comp
L GND #PWR5
U 1 1 56865B03
P 7500 1800
F 0 "#PWR5" H 7500 1550 50  0001 C CNN
F 1 "GND" H 7500 1650 50  0000 C CNN
F 2 "" H 7500 1800 50  0000 C CNN
F 3 "" H 7500 1800 50  0000 C CNN
	1    7500 1800
	1    0    0    -1  
$EndComp
Text Label 9850 1200 0    60   ~ 0
CAN+
Text Label 9850 1300 0    60   ~ 0
CAN-
Wire Wire Line
	1800 2100 1700 2100
Wire Wire Line
	1800 2200 1700 2200
Wire Wire Line
	1800 2300 1700 2300
Wire Wire Line
	2600 1400 2700 1400
Wire Wire Line
	2600 1200 2700 1200
Wire Wire Line
	2700 1200 2700 1100
Wire Wire Line
	1700 1100 1700 1200
Wire Wire Line
	1700 1200 1800 1200
Wire Wire Line
	2600 2200 2700 2200
Wire Wire Line
	2600 2300 2700 2300
Wire Wire Line
	6100 1200 8550 1200
Wire Wire Line
	6100 1300 7600 1300
Wire Wire Line
	7900 1300 8550 1300
Wire Wire Line
	7500 1700 7500 1800
Wire Wire Line
	9750 1200 9850 1200
Wire Wire Line
	9750 1300 9850 1300
Wire Wire Line
	4600 1200 4500 1200
Wire Wire Line
	4600 1300 4500 1300
Wire Wire Line
	4600 1400 4500 1400
Wire Wire Line
	4600 1500 4500 1500
Text Label 4500 1200 2    60   ~ 0
CAN_SCK
Text Label 4500 1400 2    60   ~ 0
CAN_MISO
Text Label 4500 1300 2    60   ~ 0
CAN_MOSI
Text Label 4500 1500 2    60   ~ 0
CAN_~CS~
Wire Wire Line
	4600 2450 4500 2450
Text Label 4500 2450 2    60   ~ 0
CAN_~INT~
$Comp
L GND #PWR9
U 1 1 568660AF
P 6200 2550
F 0 "#PWR9" H 6200 2300 50  0001 C CNN
F 1 "GND" H 6200 2400 50  0000 C CNN
F 2 "" H 6200 2550 50  0000 C CNN
F 3 "" H 6200 2550 50  0000 C CNN
	1    6200 2550
	1    0    0    -1  
$EndComp
$Comp
L GND #PWR6
U 1 1 568661CE
P 9950 1800
F 0 "#PWR6" H 9950 1550 50  0001 C CNN
F 1 "GND" H 9950 1650 50  0000 C CNN
F 2 "" H 9950 1800 50  0000 C CNN
F 3 "" H 9950 1800 50  0000 C CNN
	1    9950 1800
	0    -1   -1   0   
$EndComp
$Comp
L +5V #PWR4
U 1 1 56866214
P 9950 1550
F 0 "#PWR4" H 9950 1400 50  0001 C CNN
F 1 "+5V" H 9950 1690 50  0000 C CNN
F 2 "" H 9950 1550 50  0000 C CNN
F 3 "" H 9950 1550 50  0000 C CNN
	1    9950 1550
	0    1    1    0   
$EndComp
Wire Wire Line
	9750 1550 9950 1550
Wire Wire Line
	9750 1800 9950 1800
$Comp
L R R3
U 1 1 5686627D
P 8450 1950
F 0 "R3" V 8530 1950 50  0000 C CNN
F 1 "4k7" V 8450 1950 50  0000 C CNN
F 2 "Resistors_SMD:R_0603" V 8380 1950 50  0001 C CNN
F 3 "" H 8450 1950 50  0000 C CNN
	1    8450 1950
	1    0    0    -1  
$EndComp
Wire Wire Line
	8450 1800 8450 1700
Wire Wire Line
	8450 1700 8550 1700
$Comp
L GND #PWR8
U 1 1 568662E2
P 8450 2200
F 0 "#PWR8" H 8450 1950 50  0001 C CNN
F 1 "GND" H 8450 2050 50  0000 C CNN
F 2 "" H 8450 2200 50  0000 C CNN
F 3 "" H 8450 2200 50  0000 C CNN
	1    8450 2200
	1    0    0    -1  
$EndComp
Wire Wire Line
	8450 2200 8450 2100
Wire Wire Line
	7500 1400 7500 1300
Connection ~ 7500 1300
$Comp
L R R4
U 1 1 56866412
P 6350 2050
F 0 "R4" V 6430 2050 50  0000 C CNN
F 1 "10k" V 6350 2050 50  0000 C CNN
F 2 "Resistors_SMD:R_0603" V 6280 2050 50  0001 C CNN
F 3 "" H 6350 2050 50  0000 C CNN
	1    6350 2050
	0    1    1    0   
$EndComp
$Comp
L +3.3V #PWR7
U 1 1 5686645C
P 6600 1950
F 0 "#PWR7" H 6600 1800 50  0001 C CNN
F 1 "+3.3V" H 6600 2090 50  0000 C CNN
F 2 "" H 6600 1950 50  0000 C CNN
F 3 "" H 6600 1950 50  0000 C CNN
	1    6600 1950
	1    0    0    -1  
$EndComp
Wire Wire Line
	6100 2050 6200 2050
Wire Wire Line
	6600 2300 6100 2300
Wire Wire Line
	6600 1950 6600 2300
Wire Wire Line
	6500 2050 6600 2050
Connection ~ 6600 2050
Wire Wire Line
	6100 2450 6200 2450
Wire Wire Line
	6200 2450 6200 2550
Wire Wire Line
	6100 1750 6200 1750
Wire Wire Line
	6100 1850 6200 1850
Text Label 6200 1850 0    60   ~ 0
OSC1
Text Label 6200 1750 0    60   ~ 0
OSC2
$Comp
L Crystal Y1
U 1 1 56866683
P 5350 3100
F 0 "Y1" H 5350 3250 50  0000 C CNN
F 1 "16MHz" H 5350 2950 50  0000 C CNN
F 2 "Crystals:Crystal_HC49-SD_SMD" H 5350 3100 50  0001 C CNN
F 3 "" H 5350 3100 50  0000 C CNN
	1    5350 3100
	1    0    0    -1  
$EndComp
$Comp
L C C3
U 1 1 568666FD
P 5000 3450
F 0 "C3" H 5025 3550 50  0000 L CNN
F 1 "18p" H 5025 3350 50  0000 L CNN
F 2 "Capacitors_SMD:C_0603" H 5038 3300 50  0001 C CNN
F 3 "" H 5000 3450 50  0000 C CNN
	1    5000 3450
	1    0    0    -1  
$EndComp
$Comp
L C C4
U 1 1 568667D2
P 5700 3450
F 0 "C4" H 5725 3550 50  0000 L CNN
F 1 "18p" H 5725 3350 50  0000 L CNN
F 2 "Capacitors_SMD:C_0603" H 5738 3300 50  0001 C CNN
F 3 "" H 5700 3450 50  0000 C CNN
	1    5700 3450
	1    0    0    -1  
$EndComp
Wire Wire Line
	5000 3600 5000 3700
Wire Wire Line
	5000 3700 5700 3700
Wire Wire Line
	5700 3700 5700 3600
$Comp
L GND #PWR15
U 1 1 5686683F
P 5350 3800
F 0 "#PWR15" H 5350 3550 50  0001 C CNN
F 1 "GND" H 5350 3650 50  0000 C CNN
F 2 "" H 5350 3800 50  0000 C CNN
F 3 "" H 5350 3800 50  0000 C CNN
	1    5350 3800
	1    0    0    -1  
$EndComp
Wire Wire Line
	5350 3800 5350 3700
Connection ~ 5350 3700
Wire Wire Line
	4900 3100 5200 3100
Wire Wire Line
	5500 3100 5800 3100
Wire Wire Line
	5700 3300 5700 3100
Connection ~ 5700 3100
Wire Wire Line
	5000 3300 5000 3100
Connection ~ 5000 3100
Text Label 4900 3100 2    60   ~ 0
OSC1
Text Label 5800 3100 0    60   ~ 0
OSC2
$Comp
L 4P4C J1
U 1 1 5686728A
P 8350 3200
F 0 "J1" H 8550 3700 60  0000 C CNN
F 1 "4P4C" H 8200 3700 60  0000 C CNN
F 2 "PL_connectors:A-2014-3-4-N-T-R_059A" H 8350 3200 60  0001 C CNN
F 3 "" H 8350 3200 60  0000 C CNN
	1    8350 3200
	0    -1   -1   0   
$EndComp
$Comp
L 4P4C J2
U 1 1 5686731E
P 8350 4250
F 0 "J2" H 8550 4750 60  0000 C CNN
F 1 "4P4C" H 8200 4750 60  0000 C CNN
F 2 "PL_connectors:A-2014-3-4-N-T-R_059A" H 8350 4250 60  0001 C CNN
F 3 "" H 8350 4250 60  0000 C CNN
	1    8350 4250
	0    -1   -1   0   
$EndComp
Wire Wire Line
	8900 4400 8800 4400
Wire Wire Line
	8900 3350 8900 4400
Wire Wire Line
	8900 3350 8800 3350
Wire Wire Line
	9000 4300 8800 4300
Wire Wire Line
	9000 3250 9000 4300
Wire Wire Line
	9000 3250 8800 3250
Wire Wire Line
	9100 4150 8800 4150
Wire Wire Line
	9100 3100 9100 4150
Wire Wire Line
	9100 3100 8800 3100
Wire Wire Line
	9200 4050 8800 4050
Wire Wire Line
	9200 3000 9200 4050
Wire Wire Line
	9200 3000 8800 3000
$Comp
L GND #PWR16
U 1 1 5686753E
P 9400 3950
F 0 "#PWR16" H 9400 3700 50  0001 C CNN
F 1 "GND" H 9400 3800 50  0000 C CNN
F 2 "" H 9400 3950 50  0000 C CNN
F 3 "" H 9400 3950 50  0000 C CNN
	1    9400 3950
	1    0    0    -1  
$EndComp
Wire Wire Line
	9400 3950 9400 3850
Wire Wire Line
	9400 3850 9200 3850
Connection ~ 9200 3850
Wire Wire Line
	9000 3650 9400 3650
Connection ~ 9000 3650
Wire Wire Line
	9100 3750 9400 3750
Connection ~ 9100 3750
Text Label 9400 3650 0    60   ~ 0
CAN+
Text Label 9400 3750 0    60   ~ 0
CAN-
$Comp
L +3.3V #PWR10
U 1 1 56867F21
P 2000 3100
F 0 "#PWR10" H 2000 2950 50  0001 C CNN
F 1 "+3.3V" H 2000 3240 50  0000 C CNN
F 2 "" H 2000 3100 50  0000 C CNN
F 3 "" H 2000 3100 50  0000 C CNN
	1    2000 3100
	1    0    0    -1  
$EndComp
$Comp
L +5V #PWR11
U 1 1 56867F59
P 2300 3100
F 0 "#PWR11" H 2300 2950 50  0001 C CNN
F 1 "+5V" H 2300 3240 50  0000 C CNN
F 2 "" H 2300 3100 50  0000 C CNN
F 3 "" H 2300 3100 50  0000 C CNN
	1    2300 3100
	1    0    0    -1  
$EndComp
$Comp
L C C1
U 1 1 56867F91
P 2000 3350
F 0 "C1" H 2025 3450 50  0000 L CNN
F 1 "100n" H 2025 3250 50  0000 L CNN
F 2 "Capacitors_SMD:C_0603" H 2038 3200 50  0001 C CNN
F 3 "" H 2000 3350 50  0000 C CNN
	1    2000 3350
	1    0    0    -1  
$EndComp
$Comp
L C C2
U 1 1 56867FE3
P 2300 3350
F 0 "C2" H 2325 3450 50  0000 L CNN
F 1 "100n" H 2325 3250 50  0000 L CNN
F 2 "Capacitors_SMD:C_0603" H 2338 3200 50  0001 C CNN
F 3 "" H 2300 3350 50  0000 C CNN
	1    2300 3350
	1    0    0    -1  
$EndComp
$Comp
L GND #PWR13
U 1 1 5686802E
P 2000 3600
F 0 "#PWR13" H 2000 3350 50  0001 C CNN
F 1 "GND" H 2000 3450 50  0000 C CNN
F 2 "" H 2000 3600 50  0000 C CNN
F 3 "" H 2000 3600 50  0000 C CNN
	1    2000 3600
	1    0    0    -1  
$EndComp
$Comp
L GND #PWR14
U 1 1 5686806C
P 2300 3600
F 0 "#PWR14" H 2300 3350 50  0001 C CNN
F 1 "GND" H 2300 3450 50  0000 C CNN
F 2 "" H 2300 3600 50  0000 C CNN
F 3 "" H 2300 3600 50  0000 C CNN
	1    2300 3600
	1    0    0    -1  
$EndComp
Wire Wire Line
	2000 3200 2000 3100
Wire Wire Line
	2300 3100 2300 3200
Wire Wire Line
	2300 3500 2300 3600
Wire Wire Line
	2000 3600 2000 3500
NoConn ~ 1800 1300
NoConn ~ 1800 1400
NoConn ~ 1800 1500
NoConn ~ 1800 1700
NoConn ~ 1800 1800
NoConn ~ 1800 1900
NoConn ~ 2600 1500
NoConn ~ 2600 1600
NoConn ~ 2600 1700
NoConn ~ 2600 1900
NoConn ~ 2600 2000
NoConn ~ 2600 2400
NoConn ~ 4600 1700
NoConn ~ 4600 1800
NoConn ~ 4600 1900
NoConn ~ 4600 2150
NoConn ~ 4600 2250
NoConn ~ 8550 1550
NoConn ~ 6100 1600
$Comp
L MCP2515 U2
U 1 1 56869C08
P 5350 1850
F 0 "U2" H 4950 2650 60  0000 C CNN
F 1 "MCP2515" H 5100 1100 60  0000 C CNN
F 2 "Housings_SOIC:SOIC-18_7.5x11.6mm_Pitch1.27mm" H 5350 1850 60  0001 C CNN
F 3 "" H 5350 1850 60  0000 C CNN
	1    5350 1850
	1    0    0    -1  
$EndComp
$Comp
L VCC #PWR12
U 1 1 5686AC28
P 9400 3250
F 0 "#PWR12" H 9400 3100 50  0001 C CNN
F 1 "VCC" H 9400 3400 50  0000 C CNN
F 2 "" H 9400 3250 50  0000 C CNN
F 3 "" H 9400 3250 50  0000 C CNN
	1    9400 3250
	-1   0    0    -1  
$EndComp
Wire Wire Line
	9400 3250 9400 3550
Wire Wire Line
	9400 3550 8900 3550
Connection ~ 8900 3550
$Comp
L PWR_FLAG #FLG1
U 1 1 5686AE46
P 9500 3300
F 0 "#FLG1" H 9500 3395 50  0001 C CNN
F 1 "PWR_FLAG" H 9500 3480 50  0000 C CNN
F 2 "" H 9500 3300 50  0000 C CNN
F 3 "" H 9500 3300 50  0000 C CNN
	1    9500 3300
	0    1    1    0   
$EndComp
Wire Wire Line
	9500 3300 9400 3300
Connection ~ 9400 3300
$Comp
L CONN_01X04 P1
U 1 1 5686F7A7
P 2100 4250
F 0 "P1" H 2100 4500 50  0000 C CNN
F 1 "CONN_01X04" V 2200 4250 50  0000 C CNN
F 2 "Pin_Headers:Pin_Header_Straight_1x04" H 2100 4250 50  0001 C CNN
F 3 "" H 2100 4250 50  0000 C CNN
	1    2100 4250
	-1   0    0    1   
$EndComp
Wire Wire Line
	2300 4100 2400 4100
Wire Wire Line
	2300 4300 2400 4300
$Comp
L GND #PWR19
U 1 1 5686F9F2
P 2400 4300
F 0 "#PWR19" H 2400 4050 50  0001 C CNN
F 1 "GND" H 2400 4150 50  0000 C CNN
F 2 "" H 2400 4300 50  0000 C CNN
F 3 "" H 2400 4300 50  0000 C CNN
	1    2400 4300
	0    -1   -1   0   
$EndComp
$Comp
L VCC #PWR20
U 1 1 5686FAA6
P 2500 4400
F 0 "#PWR20" H 2500 4250 50  0001 C CNN
F 1 "VCC" H 2500 4550 50  0000 C CNN
F 2 "" H 2500 4400 50  0000 C CNN
F 3 "" H 2500 4400 50  0000 C CNN
	1    2500 4400
	0    1    1    0   
$EndComp
$Comp
L +5V #PWR17
U 1 1 5686FAE7
P 2400 4100
F 0 "#PWR17" H 2400 3950 50  0001 C CNN
F 1 "+5V" H 2400 4240 50  0000 C CNN
F 2 "" H 2400 4100 50  0000 C CNN
F 3 "" H 2400 4100 50  0000 C CNN
	1    2400 4100
	0    1    1    0   
$EndComp
$Comp
L +3.3V #PWR18
U 1 1 5686FB28
P 2500 4200
F 0 "#PWR18" H 2500 4050 50  0001 C CNN
F 1 "+3.3V" H 2500 4340 50  0000 C CNN
F 2 "" H 2500 4200 50  0000 C CNN
F 3 "" H 2500 4200 50  0000 C CNN
	1    2500 4200
	0    1    1    0   
$EndComp
Wire Wire Line
	2300 4400 2500 4400
Wire Wire Line
	2300 4200 2500 4200
$EndSCHEMATC
